Add weather variables · StochasticWeatherGenerators
…
Filter by date and valid data. There are a few missing values that we impute using Impute.Interpolate.

begin
    data_stations_full = collect_data_INRAE.(station_path; show_warning=[:RR, :TX], impute_missing=[:RR, :TX])
    for df in data_stations_full
        @transform!(df, :RO = onefy.(:RR))
    end
end

data_stations = [innerjoin(df, df_z; on=:DATE) for df in data_stations_full]

4-element Vector{DataFrames.DataFrame}:
 12418×10 DataFrame
   Row │ STAID     DATE        TN        TX       QQ        ETPP       RR      ⋯
       │ Int64     Date        Float64?  Float64  Float64?  Float64?   Float64 ⋯
───────┼────────────────────────────────────────────────────────────────────────
     1 │ 49215002  1986-01-01      -5.7      8.7      2.0         0.9     13.6 ⋯
     2 │ 49215002  1986-01-02       3.5      8.8      3.0         0.1     14.1
     3 │ 49215002  1986-01-03       5.4      7.6      2.0         0.5      1.0
     4 │ 49215002  1986-01-04      -2.9      6.8      6.1         0.0      6.0
     5 │ 49215002  1986-01-05       2.6      7.5      3.4         1.4     14.0 ⋯
     6 │ 49215002  1986-01-06       2.2      8.1      6.0         0.4      5.0
     7 │ 49215002  1986-01-07       3.4      7.6      1.9         0.0      8.0
     8 │ 49215002  1986-01-08       4.6     10.8      5.7         0.0      0.0
   ⋮   │    ⋮          ⋮          ⋮         ⋮        ⋮          ⋮         ⋮    ⋱
 12412 │ 49215002  2019-12-25       6.4      8.3      2.0         0.1      0.0 ⋯
 12413 │ 49215002  2019-12-26       4.6     13.6      3.76        0.1      0.0
 12414 │ 49215002  2019-12-27      10.3     13.6      2.0         0.5      1.0
 12415 │ 49215002  2019-12-28       5.6     11.0      5.01        0.0      0.5
 12416 │ 49215002  2019-12-29       0.1      8.4      4.5         0.0      0.0 ⋯
 12417 │ 49215002  2019-12-30      -1.8      8.2      6.71        0.0      0.0
 12418 │ 49215002  2019-12-31      -2.4      6.6      3.02        0.0      0.5
                                                3 columns and 12403 rows omitted
 12449×10 DataFrame
   Row │ STAID     DATE        TN        TX       QQ        ETPP      RR       ⋯
       │ Int64     Date        Float64?  Float64  Float64?  Float64?  Float64  ⋯
───────┼────────────────────────────────────────────────────────────────────────
     1 │ 80557001  1985-12-01       7.5     13.5      4.1        0.2      0.0  ⋯
     2 │ 80557001  1985-12-02       8.1     13.1      2.1        0.5      0.0
     3 │ 80557001  1985-12-03      10.0     12.0      0.7        0.1      2.0
     4 │ 80557001  1985-12-04      10.0     13.7      2.7        0.2      0.5
     5 │ 80557001  1985-12-05       9.1     14.6      3.1        0.7      0.5  ⋯
     6 │ 80557001  1985-12-06       5.5     10.6      3.6        0.4      2.5
     7 │ 80557001  1985-12-07       8.2     11.6      1.3        0.4      1.5
     8 │ 80557001  1985-12-08       2.9      8.6      1.4        0.4      1.5
   ⋮   │    ⋮          ⋮          ⋮         ⋮        ⋮         ⋮         ⋮     ⋱
 12443 │ 80557001  2019-12-25       5.6      9.1      3.29       0.1      0.0  ⋯
 12444 │ 80557001  2019-12-26       1.9     10.1      1.2        0.3     10.0
 12445 │ 80557001  2019-12-27       7.3      8.5      1.07       0.2      0.0
 12446 │ 80557001  2019-12-28       3.3      7.4      3.07       0.0      0.0
 12447 │ 80557001  2019-12-29      -0.7      4.2      4.6        0.0      0.0  ⋯
 12448 │ 80557001  2019-12-30      -1.0      5.7      5.24       0.0      0.0
 12449 │ 80557001  2019-12-31      -1.3      3.9      4.76       0.0      0.0
                                                3 columns and 12434 rows omitted
 9845×10 DataFrame
  Row │ STAID     DATE        TN        TX       QQ        ETPP      RR        ⋯
      │ Int64     Date        Float64?  Float64  Float64?  Float64?  Float64   ⋯
──────┼─────────────────────────────────────────────────────────────────────────
    1 │ 40272002  1993-01-17      19.0     20.6      0.0        0.5      0.0   ⋯
    2 │ 40272002  1993-01-18      16.7     19.4      0.0        0.5      0.0
    3 │ 40272002  1993-01-19       7.9     16.0      0.7        0.5     15.0
    4 │ 40272002  1993-01-20      -0.9     16.7      7.4        0.5      0.0
    5 │ 40272002  1993-01-21      -0.6     15.9      7.7        0.5      0.0   ⋯
    6 │ 40272002  1993-01-22      -1.2     17.7      7.8        0.5      0.0
    7 │ 40272002  1993-01-23       0.2     16.0      6.3        0.6      0.0
    8 │ 40272002  1993-01-24      -0.7     13.6      6.1        0.4      0.5
  ⋮   │    ⋮          ⋮          ⋮         ⋮        ⋮         ⋮         ⋮      ⋱
 9839 │ 40272002  2019-12-25       6.7     19.3      6.46       0.1      0.0   ⋯
 9840 │ 40272002  2019-12-26       7.3     15.7      5.29       0.3      0.0
 9841 │ 40272002  2019-12-27       0.6     14.2      6.65       0.0      0.5
 9842 │ 40272002  2019-12-28       5.3     10.7      2.32       0.2      0.0
 9843 │ 40272002  2019-12-29       4.0      6.4      2.64       0.1      0.0   ⋯
 9844 │ 40272002  2019-12-30       1.6     13.4      6.65       0.1      0.0
 9845 │ 40272002  2019-12-31      -0.4     11.7      2.15       0.2      0.5
                                                 3 columns and 9830 rows omitted
 12449×10 DataFrame
   Row │ STAID     DATE        TN        TX       QQ        ETPP      RR       ⋯
       │ Int64     Date        Float64?  Float64  Float64?  Float64?  Float64  ⋯
───────┼────────────────────────────────────────────────────────────────────────
     1 │ 63345002  1985-12-01       2.9     13.5      6.9        0.1      0.0  ⋯
     2 │ 63345002  1985-12-02       4.5     16.7      6.5        0.3      0.0
     3 │ 63345002  1985-12-03       6.6     21.1      5.6        1.4      0.0
     4 │ 63345002  1985-12-04       7.8     15.8      4.4        1.1      0.0
     5 │ 63345002  1985-12-05       3.8     12.2      6.6        0.7      0.0  ⋯
     6 │ 63345002  1985-12-06       4.1      6.4      3.9        0.4      0.0
     7 │ 63345002  1985-12-07       3.3      7.9      1.8        0.3      0.0
     8 │ 63345002  1985-12-08       3.1      8.1      2.4        0.4      0.0
   ⋮   │    ⋮          ⋮          ⋮         ⋮        ⋮         ⋮         ⋮     ⋱
 12443 │ 63345002  2019-12-25      -0.1     10.0      6.54       0.0      0.0  ⋯
 12444 │ 63345002  2019-12-26      -1.7     10.2      4.13       0.7      0.0
 12445 │ 63345002  2019-12-27       4.4      7.9      2.72       0.5      8.5
 12446 │ 63345002  2019-12-28       2.0      4.5      3.07       0.1      0.0
 12447 │ 63345002  2019-12-29      -2.6     12.2      7.01       0.2      0.0  ⋯
 12448 │ 63345002  2019-12-30       0.4     14.3      6.73       0.4      0.0
 12449 │ 63345002  2019-12-31      -0.7     12.9      6.53       0.2      0.0
                                                3 columns and 12434 rows omitted
…
